200 : 0.0 18.9953 0.0 0.0 0.0 0.0
300 : 0.0 3.91544 0.0 0.0 0.0 0.0
400 : 0.0 1.18655 0.0 0.0 0.0 0.0
500 : 0.0 0.479203 0.0 0.0 0.0 0.0
600 : 0.0 0.232627 0.0 0.0 0.0 0.0
700 : 0.0 0.1241784 0.0 0.0 0.0 0.0
800 : 0.0 0.0717487 0.0 0.0 0.0 0.0
900 : 0.0 0.04632 0.0 0.0 0.0 0.0
1000 : 0.0 0.02923517 0.0 0.0 0.0 0.0
1200 : 0.0 0.01394722 0.0 0.0 0.0 0.0
1400 : 0.0 0.007600 0.0 0.0 0.0 0.0
1600 : 0.0 0.004679 0.0 0.0 0.0 0.0
1800 : 0.0 0.002689 0.0 0.0 0.0 0.0
2000 : 0.0 0.001869 0.0 0.0 0.0 0.0
2300 : 0.0 0.001030 0.0 0.0 0.0 0.0
2500 : 0.0 0.000751 0.0 0.0 0.0 0.0
